{
  "_class": "group",
  "do_objectID": "24B8A682-0EA5-401E-845E-E8C848F39D8D",
  "exportOptions": {
    "_class": "exportOptions",
    "exportFormats": [
    ],
    "includedLayerIds": [
    ],
    "layerOptions": 0,
    "shouldTrim": false
  },
  "frame": {
    "_class": "rect",
    "constrainProportions": false,
    "height": 32,
    "width": 674,
    "x": 627,
    "y": 326
  },
  "hasClickThrough": false,
  "isFlippedHorizontal": false,
  "isFlippedVertical": false,
  "isLocked": false,
  "isVisible": true,
  "layerListExpandedType": 2,
  "layers": [
    {
      "class": "shapeGroup",
      "id": "403B6F2A-D25D-4A52-B316-0F74BC0A6560"
    },
    {
      "class": "shapeGroup",
      "id": "2734501C-B022-4F64-B23B-FAD2FA3A3E06"
    },
    {
      "class": "shapeGroup",
      "id": "6AEA0F18-46EB-4038-B836-B9055F8F9B4F"
    },
    {
      "class": "group",
      "id": "268426C8-DF28-4E6C-AD24-3DA508CB579A"
    },
    {
      "class": "text",
      "id": "13314DA4-300A-4D89-84EB-0FE8F677899E"
    }
  ],
  "name": "epic copy 4",
  "nameIsFixed": true,
  "resizingConstraint": 63,
  "resizingType": 0,
  "rotation": 0,
  "shouldBreakMaskChain": false,
  "style": {
    "_class": "style",
    "endDecorationType": 0,
    "miterLimit": 10,
    "startDecorationType": 0
  }
}