[
	{
		"objectId": "A119BE76-07DB-4406-88C2-CA68892D7BA9",
		"kind": "artboard",
		"name": "assets",
		"originalName": "assets",
		"maskFrame": null,
		"layerFrame": {
			"x": 143,
			"y": 981,
			"width": 1521,
			"height": 356
		},
		"visible": true,
		"metadata": {},
		"backgroundColor": "rgba(255, 255, 255, 1)",
		"children": [
			{
				"objectId": "A5CDC4B6-968E-4B6E-8F55-E86CC7447891",
				"kind": "group",
				"name": "tooltip_assgined_issues",
				"originalName": "tooltip-assgined_issues",
				"maskFrame": null,
				"layerFrame": {
					"x": 1293,
					"y": 38,
					"width": 107,
					"height": 27
				},
				"visible": false,
				"metadata": {
					"opacity": 1
				},
				"image": {
					"path": "images/Layer-tooltip_assgined_issues-qtvdrem0.png",
					"frame": {
						"x": 1293,
						"y": 38,
						"width": 107,
						"height": 27
					}
				},
				"children": []
			},
			{
				"objectId": "AA01A306-46D5-4FB8-A88E-127CF4A872D4",
				"kind": "group",
				"name": "tooltip_assigned_merge_requets",
				"originalName": "tooltip-assigned_merge_requets",
				"maskFrame": null,
				"layerFrame": {
					"x": 1307,
					"y": 38,
					"width": 160,
					"height": 28
				},
				"visible": false,
				"metadata": {
					"opacity": 1
				},
				"image": {
					"path": "images/Layer-tooltip_assigned_merge_requets-quewmuez.png",
					"frame": {
						"x": 1307,
						"y": 38,
						"width": 160,
						"height": 28
					}
				},
				"children": []
			},
			{
				"objectId": "001F3AFA-A993-4775-897C-CF886263C3C9",
				"kind": "group",
				"name": "tooltip_todos",
				"originalName": "tooltip-todos",
				"maskFrame": null,
				"layerFrame": {
					"x": 1402,
					"y": 38,
					"width": 51,
					"height": 28
				},
				"visible": false,
				"metadata": {
					"opacity": 1
				},
				"image": {
					"path": "images/Layer-tooltip_todos-mdaxrjnb.png",
					"frame": {
						"x": 1402,
						"y": 38,
						"width": 51,
						"height": 28
					}
				},
				"children": []
			},
			{
				"objectId": "147DA22A-711B-45B8-A812-36561547A1AF",
				"kind": "group",
				"name": "hotspot_tanuki",
				"originalName": "hotspot_tanuki",
				"maskFrame": null,
				"layerFrame": {
					"x": 20,
					"y": 13,
					"width": 28,
					"height": 26
				},
				"visible": true,
				"metadata": {
					"opacity": 1
				},
				"image": {
					"path": "images/Layer-hotspot_tanuki-mtq3reey.png",
					"frame": {
						"x": 20,
						"y": 13,
						"width": 28,
						"height": 26
					}
				},
				"children": []
			},
			{
				"objectId": "46A1A849-6128-40A1-90E0-BB1ACC43D30F",
				"kind": "group",
				"name": "dropdown_add_button_global",
				"originalName": "dropdown-add_button--global",
				"maskFrame": null,
				"layerFrame": {
					"x": 598,
					"y": 41,
					"width": 188,
					"height": 139
				},
				"visible": false,
				"metadata": {
					"opacity": 1
				},
				"image": {
					"path": "images/Layer-dropdown_add_button_global-ndzbmue4.png",
					"frame": {
						"x": 598,
						"y": 41,
						"width": 188,
						"height": 139
					}
				},
				"children": [
					{
						"objectId": "074167F8-D85B-4DCC-9E66-1F2C787BE6F0",
						"kind": "group",
						"name": "Group_3",
						"originalName": "Group 3",
						"maskFrame": null,
						"layerFrame": {
							"x": 603,
							"y": 57,
							"width": 178,
							"height": 105
						},
						"visible": true,
						"metadata": {
							"opacity": 1
						},
						"children": [
							{
								"objectId": "66A6643D-E4A3-45D1-9521-BAD8FF13B9FE",
								"kind": "group",
								"name": "list_variables",
								"originalName": "list_variables",
								"maskFrame": null,
								"layerFrame": {
									"x": 603,
									"y": 133,
									"width": 178,
									"height": 29
								},
								"visible": true,
								"metadata": {
									"opacity": 1
								},
								"image": {
									"path": "images/Layer-list_variables-njzbnjy0.png",
									"frame": {
										"x": 603,
										"y": 133,
										"width": 178,
										"height": 29
									}
								},
								"children": []
							},
							{
								"objectId": "D3C031AA-55AA-4091-83A6-7B31CAAFF88D",
								"kind": "group",
								"name": "list_services",
								"originalName": "list_services",
								"maskFrame": null,
								"layerFrame": {
									"x": 603,
									"y": 104,
									"width": 178,
									"height": 29
								},
								"visible": true,
								"metadata": {
									"opacity": 1
								},
								"image": {
									"path": "images/Layer-list_services-rdndmdmx.png",
									"frame": {
										"x": 603,
										"y": 104,
										"width": 178,
										"height": 29
									}
								},
								"children": []
							},
							{
								"objectId": "161A888B-9F4E-40B0-8C67-E9C1327C9EB0",
								"kind": "group",
								"name": "list_webhooks",
								"originalName": "list_webhooks",
								"maskFrame": null,
								"layerFrame": {
									"x": 603,
									"y": 75,
									"width": 178,
									"height": 29
								},
								"visible": true,
								"metadata": {
									"opacity": 1
								},
								"image": {
									"path": "images/Layer-list_webhooks-mtyxqtg4.png",
									"frame": {
										"x": 603,
										"y": 75,
										"width": 178,
										"height": 29
									}
								},
								"children": []
							},
							{
								"objectId": "CF4189CD-E538-4EA7-A515-6E54F2532268",
								"kind": "text",
								"name": "list_deploy_keys",
								"originalName": "list_deploy-keys",
								"maskFrame": null,
								"layerFrame": {
									"x": 618,
									"y": 57,
									"width": 94,
									"height": 12
								},
								"visible": true,
								"metadata": {
									"opacity": 1,
									"string": "Across GitLab",
									"css": [
										"/* Across GitLab: */",
										"font-family: SFUIText-Medium;",
										"font-size: 14px;",
										"color: rgba(0,0,0,0.55);"
									]
								},
								"image": {
									"path": "images/Layer-list_deploy_keys-q0y0mtg5.png",
									"frame": {
										"x": 618,
										"y": 57,
										"width": 94,
										"height": 12
									}
								},
								"children": []
							}
						]
					}
				]
			},
			{
				"objectId": "36E2E5C2-5338-4B76-A780-4AC622AFC841",
				"kind": "group",
				"name": "dropdown_add_button_project",
				"originalName": "dropdown-add_button--project",
				"maskFrame": null,
				"layerFrame": {
					"x": 598,
					"y": 41,
					"width": 188,
					"height": 273
				},
				"visible": false,
				"metadata": {
					"opacity": 1
				},
				"image": {
					"path": "images/Layer-dropdown_add_button_project-mzzfmku1.png",
					"frame": {
						"x": 598,
						"y": 41,
						"width": 188,
						"height": 273
					}
				},
				"children": [
					{
						"objectId": "F37C3454-36D4-470B-AAF0-E3F157CC637A",
						"kind": "group",
						"name": "Group_31",
						"originalName": "Group 3",
						"maskFrame": null,
						"layerFrame": {
							"x": 603,
							"y": 191,
							"width": 178,
							"height": 105
						},
						"visible": true,
						"metadata": {
							"opacity": 1
						},
						"children": [
							{
								"objectId": "0E285A31-946E-4759-91D7-3ED580F259FE",
								"kind": "group",
								"name": "list_variables1",
								"originalName": "list_variables",
								"maskFrame": null,
								"layerFrame": {
									"x": 603,
									"y": 267,
									"width": 178,
									"height": 29
								},
								"visible": true,
								"metadata": {
									"opacity": 1
								},
								"image": {
									"path": "images/Layer-list_variables-meuyodvb.png",
									"frame": {
										"x": 603,
										"y": 267,
										"width": 178,
										"height": 29
									}
								},
								"children": []
							},
							{
								"objectId": "3DB5EB1F-5C50-4532-B85E-C838EBC4C4DE",
								"kind": "group",
								"name": "list_services1",
								"originalName": "list_services",
								"maskFrame": null,
								"layerFrame": {
									"x": 603,
									"y": 238,
									"width": 178,
									"height": 29
								},
								"visible": true,
								"metadata": {
									"opacity": 1
								},
								"image": {
									"path": "images/Layer-list_services-m0rcnuvc.png",
									"frame": {
										"x": 603,
										"y": 238,
										"width": 178,
										"height": 29
									}
								},
								"children": []
							},
							{
								"objectId": "1B1FF9E4-B305-4800-86B7-E096790A736A",
								"kind": "group",
								"name": "list_webhooks1",
								"originalName": "list_webhooks",
								"maskFrame": null,
								"layerFrame": {
									"x": 603,
									"y": 209,
									"width": 178,
									"height": 29
								},
								"visible": true,
								"metadata": {
									"opacity": 1
								},
								"image": {
									"path": "images/Layer-list_webhooks-muixrky5.png",
									"frame": {
										"x": 603,
										"y": 209,
										"width": 178,
										"height": 29
									}
								},
								"children": []
							},
							{
								"objectId": "985695A4-9A2D-4C7D-880D-C4E1227CADCA",
								"kind": "text",
								"name": "list_deploy_keys1",
								"originalName": "list_deploy-keys",
								"maskFrame": null,
								"layerFrame": {
									"x": 618,
									"y": 191,
									"width": 94,
									"height": 12
								},
								"visible": true,
								"metadata": {
									"opacity": 1,
									"string": "Across GitLab",
									"css": [
										"/* Across GitLab: */",
										"font-family: SFUIText-Medium;",
										"font-size: 14px;",
										"color: rgba(0,0,0,0.55);"
									]
								},
								"image": {
									"path": "images/Layer-list_deploy_keys-otg1njk1.png",
									"frame": {
										"x": 618,
										"y": 191,
										"width": 94,
										"height": 12
									}
								},
								"children": []
							}
						]
					},
					{
						"objectId": "2229EB87-EC12-40E9-B833-A8638FAB803D",
						"kind": "group",
						"name": "list_groups",
						"originalName": "list_groups",
						"maskFrame": null,
						"layerFrame": {
							"x": 603,
							"y": 133,
							"width": 178,
							"height": 29
						},
						"visible": true,
						"metadata": {
							"opacity": 1
						},
						"image": {
							"path": "images/Layer-list_groups-mjiyouvc.png",
							"frame": {
								"x": 603,
								"y": 133,
								"width": 178,
								"height": 29
							}
						},
						"children": []
					},
					{
						"objectId": "A0CBD1BF-AA65-495B-8AA3-6D46DB27032D",
						"kind": "group",
						"name": "list_groups1",
						"originalName": "list_groups",
						"maskFrame": null,
						"layerFrame": {
							"x": 603,
							"y": 104,
							"width": 178,
							"height": 29
						},
						"visible": true,
						"metadata": {
							"opacity": 1
						},
						"image": {
							"path": "images/Layer-list_groups-qtbdqkqx.png",
							"frame": {
								"x": 603,
								"y": 104,
								"width": 178,
								"height": 29
							}
						},
						"children": []
					},
					{
						"objectId": "F47E1E57-86A8-4F67-B90B-C8160E17BABA",
						"kind": "group",
						"name": "list_member",
						"originalName": "list_member",
						"maskFrame": null,
						"layerFrame": {
							"x": 603,
							"y": 75,
							"width": 178,
							"height": 29
						},
						"visible": true,
						"metadata": {
							"opacity": 1
						},
						"image": {
							"path": "images/Layer-list_member-rjq3rtff.png",
							"frame": {
								"x": 603,
								"y": 75,
								"width": 178,
								"height": 29
							}
						},
						"children": []
					}
				]
			},
			{
				"objectId": "3876E3B2-5F5B-447E-B85E-42FBFFDB2535",
				"kind": "group",
				"name": "dropdown_projects",
				"originalName": "dropdown-projects",
				"maskFrame": null,
				"layerFrame": {
					"x": 640,
					"y": 41,
					"width": 318,
					"height": 291
				},
				"visible": false,
				"metadata": {
					"opacity": 1
				},
				"image": {
					"path": "images/Layer-dropdown_projects-mzg3nkuz.png",
					"frame": {
						"x": 640,
						"y": 41,
						"width": 318,
						"height": 291
					}
				},
				"children": [
					{
						"objectId": "41A22080-EE87-4376-802E-22EDDA021DB6",
						"kind": "group",
						"name": "list_edit_project",
						"originalName": "list_edit-project",
						"maskFrame": null,
						"layerFrame": {
							"x": 645,
							"y": 287,
							"width": 307,
							"height": 29
						},
						"visible": true,
						"metadata": {
							"opacity": 1
						},
						"image": {
							"path": "images/Layer-list_edit_project-ndfbmjiw.png",
							"frame": {
								"x": 645,
								"y": 287,
								"width": 307,
								"height": 29
							}
						},
						"children": []
					},
					{
						"objectId": "118C9384-5652-4270-8C59-65787FB48B14",
						"kind": "group",
						"name": "Group_4",
						"originalName": "Group 4",
						"maskFrame": null,
						"layerFrame": {
							"x": 645,
							"y": 161,
							"width": 307,
							"height": 105
						},
						"visible": true,
						"metadata": {
							"opacity": 1
						},
						"children": [
							{
								"objectId": "C05503C8-FCEA-4213-9232-697F1B280C93",
								"kind": "group",
								"name": "list_variables2",
								"originalName": "list_variables",
								"maskFrame": null,
								"layerFrame": {
									"x": 645,
									"y": 237,
									"width": 307,
									"height": 29
								},
								"visible": true,
								"metadata": {
									"opacity": 1
								},
								"image": {
									"path": "images/Layer-list_variables-qza1ntaz.png",
									"frame": {
										"x": 645,
										"y": 237,
										"width": 307,
										"height": 29
									}
								},
								"children": []
							},
							{
								"objectId": "B245CFF4-D391-4F16-A653-CC4849145E42",
								"kind": "group",
								"name": "list_services2",
								"originalName": "list_services",
								"maskFrame": null,
								"layerFrame": {
									"x": 645,
									"y": 208,
									"width": 307,
									"height": 29
								},
								"visible": true,
								"metadata": {
									"opacity": 1
								},
								"image": {
									"path": "images/Layer-list_services-qji0nung.png",
									"frame": {
										"x": 645,
										"y": 208,
										"width": 307,
										"height": 29
									}
								},
								"children": []
							},
							{
								"objectId": "5A43A496-CEEA-4108-AB97-E78EB79E918D",
								"kind": "group",
								"name": "hotspot_customers_stack_story",
								"originalName": "hotspot-customers_stack_story",
								"maskFrame": null,
								"layerFrame": {
									"x": 645,
									"y": 179,
									"width": 307,
									"height": 29
								},
								"visible": true,
								"metadata": {
									"opacity": 1
								},
								"image": {
									"path": "images/Layer-hotspot_customers_stack_story-nue0m0e0.png",
									"frame": {
										"x": 645,
										"y": 179,
										"width": 307,
										"height": 29
									}
								},
								"children": []
							},
							{
								"objectId": "F5A94DD5-DCF4-406D-A00E-19CA836FEDB6",
								"kind": "text",
								"name": "list_deploy_keys2",
								"originalName": "list_deploy-keys",
								"maskFrame": null,
								"layerFrame": {
									"x": 663,
									"y": 161,
									"width": 105,
									"height": 14
								},
								"visible": true,
								"metadata": {
									"opacity": 1,
									"string": "Recent projects",
									"css": [
										"/* Recent projects: */",
										"font-family: SFUIText-Medium;",
										"font-size: 14px;",
										"color: rgba(0,0,0,0.55);"
									]
								},
								"image": {
									"path": "images/Layer-list_deploy_keys-rjvbotre.png",
									"frame": {
										"x": 663,
										"y": 161,
										"width": 105,
										"height": 14
									}
								},
								"children": []
							}
						]
					},
					{
						"objectId": "82BCFB36-D555-44F1-BF48-B122761C855E",
						"kind": "group",
						"name": "hotspot_explore_projects",
						"originalName": "hotspot-explore_projects",
						"maskFrame": null,
						"layerFrame": {
							"x": 645,
							"y": 109,
							"width": 307,
							"height": 29
						},
						"visible": true,
						"metadata": {
							"opacity": 1
						},
						"image": {
							"path": "images/Layer-hotspot_explore_projects-odjcq0zc.png",
							"frame": {
								"x": 645,
								"y": 109,
								"width": 307,
								"height": 29
							}
						},
						"children": []
					},
					{
						"objectId": "FBD5E5C3-59CC-4F11-BAC1-AFA93EFC6EA2",
						"kind": "group",
						"name": "hotspot_starred_projects",
						"originalName": "hotspot-starred_projects",
						"maskFrame": null,
						"layerFrame": {
							"x": 645,
							"y": 80,
							"width": 307,
							"height": 29
						},
						"visible": true,
						"metadata": {
							"opacity": 1
						},
						"image": {
							"path": "images/Layer-hotspot_starred_projects-rkjenuu1.png",
							"frame": {
								"x": 645,
								"y": 80,
								"width": 307,
								"height": 29
							}
						},
						"children": []
					},
					{
						"objectId": "19B4BB21-5FF3-4E45-8A88-A522B6A99409",
						"kind": "group",
						"name": "hotspot_your_projects",
						"originalName": "hotspot_your_projects",
						"maskFrame": null,
						"layerFrame": {
							"x": 645,
							"y": 51,
							"width": 307,
							"height": 29
						},
						"visible": true,
						"metadata": {
							"opacity": 1
						},
						"image": {
							"path": "images/Layer-hotspot_your_projects-mtlcnejc.png",
							"frame": {
								"x": 645,
								"y": 51,
								"width": 307,
								"height": 29
							}
						},
						"children": []
					}
				]
			},
			{
				"objectId": "8280DA6F-39CC-41DB-9493-09F5D6CAE896",
				"kind": "group",
				"name": "dropdown_activity",
				"originalName": "dropdown-activity",
				"maskFrame": null,
				"layerFrame": {
					"x": 719,
					"y": 41,
					"width": 217,
					"height": 83
				},
				"visible": false,
				"metadata": {
					"opacity": 1
				},
				"image": {
					"path": "images/Layer-dropdown_activity-odi4merb.png",
					"frame": {
						"x": 719,
						"y": 41,
						"width": 217,
						"height": 83
					}
				},
				"children": [
					{
						"objectId": "0A4BDBCA-876F-4AC5-8809-37FB709BAC35",
						"kind": "group",
						"name": "starred_projects",
						"originalName": "starred-projects",
						"maskFrame": null,
						"layerFrame": {
							"x": 724,
							"y": 80,
							"width": 206,
							"height": 29
						},
						"visible": true,
						"metadata": {
							"opacity": 1
						},
						"image": {
							"path": "images/Layer-starred_projects-mee0qkrc.png",
							"frame": {
								"x": 724,
								"y": 80,
								"width": 206,
								"height": 29
							}
						},
						"children": []
					},
					{
						"objectId": "60875399-E3FE-4092-AF81-E09AD73A22EC",
						"kind": "group",
						"name": "hotspot_activity_your_projects",
						"originalName": "hotspot-activity_your_projects",
						"maskFrame": null,
						"layerFrame": {
							"x": 724,
							"y": 51,
							"width": 206,
							"height": 29
						},
						"visible": true,
						"metadata": {
							"opacity": 1
						},
						"image": {
							"path": "images/Layer-hotspot_activity_your_projects-nja4nzuz.png",
							"frame": {
								"x": 724,
								"y": 51,
								"width": 206,
								"height": 29
							}
						},
						"children": []
					}
				]
			},
			{
				"objectId": "55900BCE-3264-41B2-9EE7-18794DE31C8B",
				"kind": "group",
				"name": "dropdown_groups",
				"originalName": "dropdown-groups",
				"maskFrame": null,
				"layerFrame": {
					"x": 793,
					"y": 41,
					"width": 238,
					"height": 262
				},
				"visible": false,
				"metadata": {
					"opacity": 1
				},
				"image": {
					"path": "images/Layer-dropdown_groups-ntu5mdbc.png",
					"frame": {
						"x": 793,
						"y": 41,
						"width": 238,
						"height": 262
					}
				},
				"children": [
					{
						"objectId": "A690E31D-DF63-4C15-9991-EB333E787C34",
						"kind": "group",
						"name": "list_edit_project1",
						"originalName": "list_edit-project",
						"maskFrame": null,
						"layerFrame": {
							"x": 798,
							"y": 258,
							"width": 228,
							"height": 29
						},
						"visible": true,
						"metadata": {
							"opacity": 1
						},
						"image": {
							"path": "images/Layer-list_edit_project-qty5meuz.png",
							"frame": {
								"x": 798,
								"y": 258,
								"width": 228,
								"height": 29
							}
						},
						"children": []
					},
					{
						"objectId": "05386A02-0526-4BF9-9679-861E715FEA95",
						"kind": "group",
						"name": "Group_41",
						"originalName": "Group 4",
						"maskFrame": null,
						"layerFrame": {
							"x": 798,
							"y": 133,
							"width": 228,
							"height": 104
						},
						"visible": true,
						"metadata": {
							"opacity": 1
						},
						"children": [
							{
								"objectId": "D6519DC8-7381-41B4-A0A3-1CB76B40F9AD",
								"kind": "group",
								"name": "list_variables3",
								"originalName": "list_variables",
								"maskFrame": null,
								"layerFrame": {
									"x": 798,
									"y": 208,
									"width": 228,
									"height": 29
								},
								"visible": true,
								"metadata": {
									"opacity": 1
								},
								"image": {
									"path": "images/Layer-list_variables-rdy1mtle.png",
									"frame": {
										"x": 798,
										"y": 208,
										"width": 228,
										"height": 29
									}
								},
								"children": []
							},
							{
								"objectId": "66A4DED2-51FB-40D3-B2C4-44BA05447E7D",
								"kind": "group",
								"name": "hotspot_customers_organisation",
								"originalName": "hotspot-customers-organisation",
								"maskFrame": null,
								"layerFrame": {
									"x": 798,
									"y": 179,
									"width": 228,
									"height": 29
								},
								"visible": true,
								"metadata": {
									"opacity": 1
								},
								"image": {
									"path": "images/Layer-hotspot_customers_organisation-njzbnerf.png",
									"frame": {
										"x": 798,
										"y": 179,
										"width": 228,
										"height": 29
									}
								},
								"children": [
									{
										"objectId": "739C493D-8A91-4B66-B515-776EE2938821",
										"kind": "group",
										"name": "Group_7",
										"originalName": "Group 7",
										"maskFrame": {
											"x": 0,
											"y": 0,
											"width": 14,
											"height": 14
										},
										"layerFrame": {
											"x": 815,
											"y": 187,
											"width": 14,
											"height": 14
										},
										"visible": true,
										"metadata": {
											"opacity": 1
										},
										"image": {
											"path": "images/Layer-Group_7-nzm5qzq5.png",
											"frame": {
												"x": 815,
												"y": 187,
												"width": 14,
												"height": 14
											}
										},
										"children": []
									}
								]
							},
							{
								"objectId": "F19B3493-B5C8-437D-ADF1-4C47E6BBC9C4",
								"kind": "group",
								"name": "hotspot_customers",
								"originalName": "hotspot-customers",
								"maskFrame": null,
								"layerFrame": {
									"x": 798,
									"y": 150,
									"width": 228,
									"height": 29
								},
								"visible": true,
								"metadata": {
									"opacity": 1
								},
								"image": {
									"path": "images/Layer-hotspot_customers-rje5qjm0.png",
									"frame": {
										"x": 798,
										"y": 150,
										"width": 228,
										"height": 29
									}
								},
								"children": [
									{
										"objectId": "5B308DD1-AB49-4C42-A822-7A4AC007B122",
										"kind": "group",
										"name": "Group_5",
										"originalName": "Group 5",
										"maskFrame": {
											"x": 0,
											"y": 0,
											"width": 14,
											"height": 14
										},
										"layerFrame": {
											"x": 815,
											"y": 158,
											"width": 14,
											"height": 14
										},
										"visible": true,
										"metadata": {
											"opacity": 1
										},
										"image": {
											"path": "images/Layer-Group_5-nuizmdhe.png",
											"frame": {
												"x": 815,
												"y": 158,
												"width": 14,
												"height": 14
											}
										},
										"children": []
									}
								]
							},
							{
								"objectId": "3C770C66-190D-4175-AF87-58CA19314894",
								"kind": "text",
								"name": "list_deploy_keys3",
								"originalName": "list_deploy-keys",
								"maskFrame": null,
								"layerFrame": {
									"x": 816,
									"y": 133,
									"width": 97,
									"height": 13
								},
								"visible": true,
								"metadata": {
									"opacity": 1,
									"string": "Recent groups",
									"css": [
										"/* Recent groups: */",
										"font-family: SFUIText-Medium;",
										"font-size: 14px;",
										"color: rgba(0,0,0,0.55);"
									]
								},
								"image": {
									"path": "images/Layer-list_deploy_keys-m0m3nzbd.png",
									"frame": {
										"x": 816,
										"y": 133,
										"width": 97,
										"height": 13
									}
								},
								"children": []
							}
						]
					},
					{
						"objectId": "E80C332F-A0D8-4E8C-9229-8310A97B377B",
						"kind": "group",
						"name": "hotspot_explore_groups",
						"originalName": "hotspot-explore_groups",
						"maskFrame": null,
						"layerFrame": {
							"x": 798,
							"y": 80,
							"width": 228,
							"height": 29
						},
						"visible": true,
						"metadata": {
							"opacity": 1
						},
						"image": {
							"path": "images/Layer-hotspot_explore_groups-rtgwqzmz.png",
							"frame": {
								"x": 798,
								"y": 80,
								"width": 228,
								"height": 29
							}
						},
						"children": []
					},
					{
						"objectId": "DD501101-856F-4875-9E56-6F3ACB3A566F",
						"kind": "group",
						"name": "hotspot_your_groups",
						"originalName": "hotspot-your_groups",
						"maskFrame": null,
						"layerFrame": {
							"x": 798,
							"y": 51,
							"width": 228,
							"height": 29
						},
						"visible": true,
						"metadata": {
							"opacity": 1
						},
						"image": {
							"path": "images/Layer-hotspot_your_groups-req1mdex.png",
							"frame": {
								"x": 798,
								"y": 51,
								"width": 228,
								"height": 29
							}
						},
						"children": []
					}
				]
			},
			{
				"objectId": "700007C1-295E-42FB-85AF-096F9C75EE6D",
				"kind": "group",
				"name": "dropdown_more",
				"originalName": "dropdown-more",
				"maskFrame": null,
				"layerFrame": {
					"x": 869,
					"y": 41,
					"width": 134,
					"height": 83
				},
				"visible": false,
				"metadata": {
					"opacity": 1
				},
				"image": {
					"path": "images/Layer-dropdown_more-nzawmda3.png",
					"frame": {
						"x": 869,
						"y": 41,
						"width": 134,
						"height": 83
					}
				},
				"children": [
					{
						"objectId": "690FC347-F5D4-4179-BE2C-5EED13811766",
						"kind": "group",
						"name": "hotspot_snippets",
						"originalName": "hotspot-snippets",
						"maskFrame": null,
						"layerFrame": {
							"x": 874,
							"y": 80,
							"width": 124,
							"height": 29
						},
						"visible": true,
						"metadata": {
							"opacity": 1
						},
						"image": {
							"path": "images/Layer-hotspot_snippets-njkwrkmz.png",
							"frame": {
								"x": 874,
								"y": 80,
								"width": 124,
								"height": 29
							}
						},
						"children": []
					},
					{
						"objectId": "0AD3D87C-A052-4470-B863-1179D0E74DF0",
						"kind": "group",
						"name": "hotspot_milestones",
						"originalName": "hotspot-milestones",
						"maskFrame": null,
						"layerFrame": {
							"x": 874,
							"y": 51,
							"width": 124,
							"height": 29
						},
						"visible": true,
						"metadata": {
							"opacity": 1
						},
						"image": {
							"path": "images/Layer-hotspot_milestones-mefem0q4.png",
							"frame": {
								"x": 874,
								"y": 51,
								"width": 124,
								"height": 29
							}
						},
						"children": []
					}
				]
			},
			{
				"objectId": "C5C72E55-2112-4B84-B941-2D83E35CA172",
				"kind": "group",
				"name": "dropdown_profile",
				"originalName": "dropdown-profile",
				"maskFrame": null,
				"layerFrame": {
					"x": 1378,
					"y": 41,
					"width": 128,
					"height": 162
				},
				"visible": false,
				"metadata": {
					"opacity": 1
				},
				"image": {
					"path": "images/Layer-dropdown_profile-qzvdnzjf.png",
					"frame": {
						"x": 1378,
						"y": 41,
						"width": 128,
						"height": 162
					}
				},
				"children": [
					{
						"objectId": "A65C82DC-9109-402B-8651-DAC0F4866C75",
						"kind": "group",
						"name": "list_edit_project2",
						"originalName": "list_edit-project",
						"maskFrame": null,
						"layerFrame": {
							"x": 1383,
							"y": 159,
							"width": 118,
							"height": 29
						},
						"visible": true,
						"metadata": {
							"opacity": 1
						},
						"image": {
							"path": "images/Layer-list_edit_project-qty1qzgy.png",
							"frame": {
								"x": 1383,
								"y": 159,
								"width": 118,
								"height": 29
							}
						},
						"children": []
					},
					{
						"objectId": "0BE65531-06B8-4DFE-8A79-5EB5792E00F4",
						"kind": "group",
						"name": "Group_42",
						"originalName": "Group 4",
						"maskFrame": null,
						"layerFrame": {
							"x": 1383,
							"y": 109,
							"width": 118,
							"height": 29
						},
						"visible": true,
						"metadata": {
							"opacity": 1
						},
						"children": [
							{
								"objectId": "046FFB43-57EB-4000-9A37-0FAD1570C98E",
								"kind": "group",
								"name": "list_variables4",
								"originalName": "list_variables",
								"maskFrame": null,
								"layerFrame": {
									"x": 1383,
									"y": 109,
									"width": 118,
									"height": 29
								},
								"visible": true,
								"metadata": {
									"opacity": 1
								},
								"image": {
									"path": "images/Layer-list_variables-mdq2rkzc.png",
									"frame": {
										"x": 1383,
										"y": 109,
										"width": 118,
										"height": 29
									}
								},
								"children": []
							}
						]
					},
					{
						"objectId": "EB950CF3-77E1-4B2C-AFE7-77D650A65383",
						"kind": "group",
						"name": "hotspot_settings",
						"originalName": "hotspot_settings",
						"maskFrame": null,
						"layerFrame": {
							"x": 1383,
							"y": 80,
							"width": 118,
							"height": 29
						},
						"visible": true,
						"metadata": {
							"opacity": 1
						},
						"image": {
							"path": "images/Layer-hotspot_settings-rui5ntbd.png",
							"frame": {
								"x": 1383,
								"y": 80,
								"width": 118,
								"height": 29
							}
						},
						"children": []
					},
					{
						"objectId": "CFABB9BF-3330-4D5F-BDCF-DECB38E620FF",
						"kind": "group",
						"name": "hotspot_profile",
						"originalName": "hotspot_profile",
						"maskFrame": null,
						"layerFrame": {
							"x": 1383,
							"y": 51,
							"width": 118,
							"height": 29
						},
						"visible": true,
						"metadata": {
							"opacity": 1
						},
						"image": {
							"path": "images/Layer-hotspot_profile-q0zbqki5.png",
							"frame": {
								"x": 1383,
								"y": 51,
								"width": 118,
								"height": 29
							}
						},
						"children": []
					}
				]
			},
			{
				"objectId": "08DBA771-223C-448A-A510-50A9460E32C0",
				"kind": "group",
				"name": "hotspot_profile_picture",
				"originalName": "hotspot_profile_picture",
				"maskFrame": null,
				"layerFrame": {
					"x": 1461,
					"y": 11,
					"width": 42,
					"height": 30
				},
				"visible": true,
				"metadata": {
					"opacity": 1
				},
				"image": {
					"path": "images/Layer-hotspot_profile_picture-mdheqke3.png",
					"frame": {
						"x": 1461,
						"y": 11,
						"width": 42,
						"height": 30
					}
				},
				"children": []
			},
			{
				"objectId": "DC529F5A-C7C2-4C57-B70D-2106EBC03714",
				"kind": "group",
				"name": "hotspot_todos",
				"originalName": "hotspot_todos",
				"maskFrame": null,
				"layerFrame": {
					"x": 1417,
					"y": 13,
					"width": 37,
					"height": 27
				},
				"visible": true,
				"metadata": {
					"opacity": 1
				},
				"image": {
					"path": "images/Layer-hotspot_todos-rem1mjlg.png",
					"frame": {
						"x": 1417,
						"y": 13,
						"width": 37,
						"height": 27
					}
				},
				"children": []
			},
			{
				"objectId": "FBB1855F-8F8E-4AD4-BF6F-891ECE78BAC3",
				"kind": "group",
				"name": "hotspot_assgined_merge_requests",
				"originalName": "hotspot_assgined_merge_requests",
				"maskFrame": null,
				"layerFrame": {
					"x": 1374,
					"y": 13,
					"width": 36,
					"height": 27
				},
				"visible": true,
				"metadata": {
					"opacity": 1
				},
				"image": {
					"path": "images/Layer-hotspot_assgined_merge_requests-rkjcmtg1.png",
					"frame": {
						"x": 1374,
						"y": 13,
						"width": 36,
						"height": 27
					}
				},
				"children": []
			},
			{
				"objectId": "D4B1DB11-DAF1-450B-A361-A2EEE3D59CB9",
				"kind": "group",
				"name": "hotspot_assigned_issues",
				"originalName": "hotspot_assigned_issues",
				"maskFrame": null,
				"layerFrame": {
					"x": 1334,
					"y": 13,
					"width": 36,
					"height": 27
				},
				"visible": true,
				"metadata": {
					"opacity": 1
				},
				"image": {
					"path": "images/Layer-hotspot_assigned_issues-rdrcmurc.png",
					"frame": {
						"x": 1334,
						"y": 13,
						"width": 36,
						"height": 27
					}
				},
				"children": []
			},
			{
				"objectId": "2703800C-6FB5-4072-A173-E47BBF73E743",
				"kind": "group",
				"name": "hotspot_more",
				"originalName": "hotspot_more",
				"maskFrame": null,
				"layerFrame": {
					"x": 870,
					"y": 13,
					"width": 52,
					"height": 27
				},
				"visible": true,
				"metadata": {
					"opacity": 1
				},
				"image": {
					"path": "images/Layer-hotspot_more-mjcwmzgw.png",
					"frame": {
						"x": 870,
						"y": 13,
						"width": 52,
						"height": 27
					}
				},
				"children": []
			},
			{
				"objectId": "483B772B-82D8-416B-9C14-26E987178CD7",
				"kind": "group",
				"name": "hotspot_groups",
				"originalName": "hotspot_groups",
				"maskFrame": null,
				"layerFrame": {
					"x": 792,
					"y": 13,
					"width": 67,
					"height": 27
				},
				"visible": true,
				"metadata": {
					"opacity": 1
				},
				"image": {
					"path": "images/Layer-hotspot_groups-ndgzqjc3.png",
					"frame": {
						"x": 792,
						"y": 13,
						"width": 67,
						"height": 27
					}
				},
				"children": []
			},
			{
				"objectId": "67D8CA5C-9A9A-404E-9325-38A6CAFD064F",
				"kind": "group",
				"name": "hotspot_activity",
				"originalName": "hotspot_activity",
				"maskFrame": null,
				"layerFrame": {
					"x": 720,
					"y": 13,
					"width": 65,
					"height": 27
				},
				"visible": true,
				"metadata": {
					"opacity": 1
				},
				"image": {
					"path": "images/Layer-hotspot_activity-njdeoenb.png",
					"frame": {
						"x": 720,
						"y": 13,
						"width": 65,
						"height": 27
					}
				},
				"children": []
			},
			{
				"objectId": "A39E8D2E-C801-41CF-9749-824129261B7D",
				"kind": "group",
				"name": "hotspot_projects",
				"originalName": "hotspot_projects",
				"maskFrame": null,
				"layerFrame": {
					"x": 641,
					"y": 13,
					"width": 68,
					"height": 27
				},
				"visible": true,
				"metadata": {
					"opacity": 1
				},
				"image": {
					"path": "images/Layer-hotspot_projects-qtm5rthe.png",
					"frame": {
						"x": 641,
						"y": 13,
						"width": 68,
						"height": 27
					}
				},
				"children": []
			},
			{
				"objectId": "69D50614-0CFB-40E4-9263-2D682390E88E",
				"kind": "group",
				"name": "hotspot_plus_button",
				"originalName": "hotspot_plus_button",
				"maskFrame": null,
				"layerFrame": {
					"x": 601,
					"y": 13,
					"width": 29,
					"height": 27
				},
				"visible": true,
				"metadata": {
					"opacity": 1
				},
				"image": {
					"path": "images/Layer-hotspot_plus_button-njlenta2.png",
					"frame": {
						"x": 601,
						"y": 13,
						"width": 29,
						"height": 27
					}
				},
				"children": []
			},
			{
				"objectId": "27F11485-C019-4AD6-92BB-153765144C5A",
				"kind": "group",
				"name": "top_bar",
				"originalName": "top-bar",
				"maskFrame": null,
				"layerFrame": {
					"x": 0,
					"y": 0,
					"width": 1521,
					"height": 51
				},
				"visible": true,
				"metadata": {
					"opacity": 1
				},
				"image": {
					"path": "images/Layer-top_bar-mjdgmte0.png",
					"frame": {
						"x": 0,
						"y": 0,
						"width": 1521,
						"height": 51
					}
				},
				"children": [
					{
						"objectId": "839C34AC-7136-4F1C-A068-8C283F9C9AF4",
						"kind": "group",
						"name": "tanuki",
						"originalName": "tanuki",
						"maskFrame": null,
						"layerFrame": {
							"x": 20,
							"y": 13,
							"width": 28,
							"height": 26
						},
						"visible": true,
						"metadata": {
							"opacity": 1
						},
						"image": {
							"path": "images/Layer-tanuki-odm5qzm0.png",
							"frame": {
								"x": 20,
								"y": 13,
								"width": 28,
								"height": 26
							}
						},
						"children": []
					},
					{
						"objectId": "F342E75E-F038-4244-8801-77AFD9F12E30",
						"kind": "group",
						"name": "breadcrumb_container",
						"originalName": "breadcrumb-container",
						"maskFrame": null,
						"layerFrame": {
							"x": 54,
							"y": 0,
							"width": 310,
							"height": 50
						},
						"visible": true,
						"metadata": {
							"opacity": 1
						},
						"image": {
							"path": "images/Layer-breadcrumb_container-rjm0mku3.png",
							"frame": {
								"x": 54,
								"y": 0,
								"width": 310,
								"height": 50
							}
						},
						"children": [
							{
								"objectId": "137E67B4-BF41-427F-A755-4F895070D6CD",
								"kind": "group",
								"name": "breadcrumbs_global",
								"originalName": "breadcrumbs-global",
								"maskFrame": null,
								"layerFrame": {
									"x": 54,
									"y": 0,
									"width": 58,
									"height": 50
								},
								"visible": false,
								"metadata": {
									"opacity": 1
								},
								"image": {
									"path": "images/Layer-breadcrumbs_global-mtm3rty3.png",
									"frame": {
										"x": 54,
										"y": 0,
										"width": 58,
										"height": 50
									}
								},
								"children": [
									{
										"objectId": "047C4EA5-1C53-4D78-B4A4-FBFD818F8BE8",
										"kind": "group",
										"name": "hotspot_breadcrumbs_global",
										"originalName": "hotspot-breadcrumbs-global",
										"maskFrame": null,
										"layerFrame": {
											"x": 54,
											"y": 0,
											"width": 58,
											"height": 50
										},
										"visible": true,
										"metadata": {
											"opacity": 1
										},
										"image": {
											"path": "images/Layer-hotspot_breadcrumbs_global-mdq3qzrf.png",
											"frame": {
												"x": 54,
												"y": 0,
												"width": 58,
												"height": 50
											}
										},
										"children": []
									}
								]
							},
							{
								"objectId": "8DE41FC6-28A2-4F1F-A585-C38473E9F5BB",
								"kind": "group",
								"name": "breadcrumbs_settings",
								"originalName": "breadcrumbs-settings",
								"maskFrame": null,
								"layerFrame": {
									"x": 54,
									"y": 0,
									"width": 148,
									"height": 50
								},
								"visible": false,
								"metadata": {
									"opacity": 1
								},
								"image": {
									"path": "images/Layer-breadcrumbs_settings-oerfndfg.png",
									"frame": {
										"x": 54,
										"y": 0,
										"width": 148,
										"height": 50
									}
								},
								"children": [
									{
										"objectId": "C244E8B5-0BC2-437E-9147-6B6BBBB51038",
										"kind": "group",
										"name": "hotspot_breadcrumbs_settings",
										"originalName": "hotspot-breadcrumbs-settings",
										"maskFrame": null,
										"layerFrame": {
											"x": 54,
											"y": 0,
											"width": 148,
											"height": 50
										},
										"visible": true,
										"metadata": {
											"opacity": 1
										},
										"image": {
											"path": "images/Layer-hotspot_breadcrumbs_settings-qzi0neu4.png",
											"frame": {
												"x": 54,
												"y": 0,
												"width": 148,
												"height": 50
											}
										},
										"children": []
									}
								]
							},
							{
								"objectId": "1A71B459-6932-4A52-A2F4-1641499256EA",
								"kind": "group",
								"name": "breadcrumbs_dashboard",
								"originalName": "breadcrumbs-dashboard",
								"maskFrame": null,
								"layerFrame": {
									"x": 54,
									"y": 0,
									"width": 93,
									"height": 50
								},
								"visible": false,
								"metadata": {
									"opacity": 1
								},
								"image": {
									"path": "images/Layer-breadcrumbs_dashboard-mue3mui0.png",
									"frame": {
										"x": 54,
										"y": 0,
										"width": 93,
										"height": 50
									}
								},
								"children": [
									{
										"objectId": "460FCB64-363C-4501-AEF5-314D9A022075",
										"kind": "group",
										"name": "hotspot_breadcrumbs_dashboard",
										"originalName": "hotspot-breadcrumbs-dashboard",
										"maskFrame": null,
										"layerFrame": {
											"x": 54,
											"y": 0,
											"width": 93,
											"height": 50
										},
										"visible": true,
										"metadata": {
											"opacity": 1
										},
										"image": {
											"path": "images/Layer-hotspot_breadcrumbs_dashboard-ndywrknc.png",
											"frame": {
												"x": 54,
												"y": 0,
												"width": 93,
												"height": 50
											}
										},
										"children": []
									}
								]
							},
							{
								"objectId": "0B415951-DC7B-4EB7-95A9-9D52458797A1",
								"kind": "group",
								"name": "breadcrumbs_user_profile",
								"originalName": "breadcrumbs-user-profile",
								"maskFrame": null,
								"layerFrame": {
									"x": 54,
									"y": 0,
									"width": 91,
									"height": 50
								},
								"visible": false,
								"metadata": {
									"opacity": 1
								},
								"image": {
									"path": "images/Layer-breadcrumbs_user_profile-mei0mtu5.png",
									"frame": {
										"x": 54,
										"y": 0,
										"width": 91,
										"height": 50
									}
								},
								"children": [
									{
										"objectId": "754B81F6-487B-490E-A267-AD4CB16E48CD",
										"kind": "group",
										"name": "hotspot_breadcrumbs_user_profile",
										"originalName": "hotspot-breadcrumbs-user-profile",
										"maskFrame": null,
										"layerFrame": {
											"x": 54,
											"y": 0,
											"width": 91,
											"height": 50
										},
										"visible": true,
										"metadata": {
											"opacity": 1
										},
										"image": {
											"path": "images/Layer-hotspot_breadcrumbs_user_profile-nzu0qjgx.png",
											"frame": {
												"x": 54,
												"y": 0,
												"width": 91,
												"height": 50
											}
										},
										"children": []
									}
								]
							},
							{
								"objectId": "1565011B-624E-4D64-9FEB-0DECB6E3C12B",
								"kind": "group",
								"name": "breadcrumbs_project",
								"originalName": "breadcrumbs-project",
								"maskFrame": null,
								"layerFrame": {
									"x": 54,
									"y": 0,
									"width": 310,
									"height": 50
								},
								"visible": false,
								"metadata": {
									"opacity": 1
								},
								"image": {
									"path": "images/Layer-breadcrumbs_project-mtu2ntax.png",
									"frame": {
										"x": 54,
										"y": 0,
										"width": 310,
										"height": 50
									}
								},
								"children": [
									{
										"objectId": "62EB488C-389E-464C-B7B4-998C790848E1",
										"kind": "group",
										"name": "hotspot_breadcrumbs_project_project",
										"originalName": "hotspot-breadcrumbs-project-project",
										"maskFrame": null,
										"layerFrame": {
											"x": 269,
											"y": 0,
											"width": 95,
											"height": 50
										},
										"visible": true,
										"metadata": {
											"opacity": 1
										},
										"image": {
											"path": "images/Layer-hotspot_breadcrumbs_project_project-njjfqjq4.png",
											"frame": {
												"x": 269,
												"y": 0,
												"width": 95,
												"height": 50
											}
										},
										"children": []
									},
									{
										"objectId": "211C6D23-457C-4490-8072-42E22939D14B",
										"kind": "group",
										"name": "hotspot_breadcrumbs_project_subgroup",
										"originalName": "hotspot-breadcrumbs-project-subgroup",
										"maskFrame": null,
										"layerFrame": {
											"x": 154,
											"y": 0,
											"width": 101,
											"height": 50
										},
										"visible": true,
										"metadata": {
											"opacity": 1
										},
										"image": {
											"path": "images/Layer-hotspot_breadcrumbs_project_subgroup-mjexqzze.png",
											"frame": {
												"x": 154,
												"y": 0,
												"width": 101,
												"height": 50
											}
										},
										"children": []
									},
									{
										"objectId": "EF91A2A7-7750-45CF-9030-4DC6803E0D6A",
										"kind": "group",
										"name": "hotspot_breadcrumbs_project_group",
										"originalName": "hotspot-breadcrumbs-project-group",
										"maskFrame": null,
										"layerFrame": {
											"x": 54,
											"y": 0,
											"width": 85,
											"height": 50
										},
										"visible": true,
										"metadata": {
											"opacity": 1
										},
										"image": {
											"path": "images/Layer-hotspot_breadcrumbs_project_group-ruy5muey.png",
											"frame": {
												"x": 54,
												"y": 0,
												"width": 85,
												"height": 50
											}
										},
										"children": []
									}
								]
							},
							{
								"objectId": "E8521C90-EF63-4E2C-934B-016207074D85",
								"kind": "group",
								"name": "breadcrumbs_subgroup",
								"originalName": "breadcrumbs-subgroup",
								"maskFrame": null,
								"layerFrame": {
									"x": 54,
									"y": 0,
									"width": 205,
									"height": 50
								},
								"visible": false,
								"metadata": {
									"opacity": 1
								},
								"image": {
									"path": "images/Layer-breadcrumbs_subgroup-rtg1mjfd.png",
									"frame": {
										"x": 54,
										"y": 0,
										"width": 205,
										"height": 50
									}
								},
								"children": [
									{
										"objectId": "F5954862-11AF-42D0-95CA-75B9D94C5682",
										"kind": "group",
										"name": "hotspot_breadcrumbs_subgroup_subgroup",
										"originalName": "hotspot-breadcrumbs-subgroup-subgroup",
										"maskFrame": null,
										"layerFrame": {
											"x": 154,
											"y": 0,
											"width": 105,
											"height": 50
										},
										"visible": true,
										"metadata": {
											"opacity": 1
										},
										"image": {
											"path": "images/Layer-hotspot_breadcrumbs_subgroup_subgroup-rju5ntq4.png",
											"frame": {
												"x": 154,
												"y": 0,
												"width": 105,
												"height": 50
											}
										},
										"children": []
									},
									{
										"objectId": "F847D2F0-9271-4A6A-BDB2-09C5FF5157DF",
										"kind": "group",
										"name": "hotspot_breadcrumbs_subgroup_group",
										"originalName": "hotspot-breadcrumbs-subgroup-group",
										"maskFrame": null,
										"layerFrame": {
											"x": 54,
											"y": 0,
											"width": 85,
											"height": 50
										},
										"visible": true,
										"metadata": {
											"opacity": 1
										},
										"image": {
											"path": "images/Layer-hotspot_breadcrumbs_subgroup_group-rjg0n0qy.png",
											"frame": {
												"x": 54,
												"y": 0,
												"width": 85,
												"height": 50
											}
										},
										"children": []
									}
								]
							},
							{
								"objectId": "6699B326-4DD9-4B1A-B580-A2DBBF1B239B",
								"kind": "group",
								"name": "breadcrumbs_group",
								"originalName": "breadcrumbs-group",
								"maskFrame": null,
								"layerFrame": {
									"x": 54,
									"y": 0,
									"width": 88,
									"height": 50
								},
								"visible": false,
								"metadata": {
									"opacity": 1
								},
								"image": {
									"path": "images/Layer-breadcrumbs_group-njy5ouiz.png",
									"frame": {
										"x": 54,
										"y": 0,
										"width": 88,
										"height": 50
									}
								},
								"children": [
									{
										"objectId": "C2FEA728-256E-4D14-A619-4C8E9ED707D6",
										"kind": "group",
										"name": "hotspot_breadcrumbs_group",
										"originalName": "hotspot-breadcrumbs-group",
										"maskFrame": null,
										"layerFrame": {
											"x": 54,
											"y": 0,
											"width": 85,
											"height": 50
										},
										"visible": true,
										"metadata": {
											"opacity": 1
										},
										"image": {
											"path": "images/Layer-hotspot_breadcrumbs_group-qzjgrue3.png",
											"frame": {
												"x": 54,
												"y": 0,
												"width": 85,
												"height": 50
											}
										},
										"children": []
									}
								]
							}
						]
					},
					{
						"objectId": "7D2C9EAC-0710-40CE-9F86-98DCC4A960C8",
						"kind": "group",
						"name": "global_actions",
						"originalName": "global-actions",
						"maskFrame": null,
						"layerFrame": {
							"x": 604,
							"y": 20,
							"width": 313,
							"height": 14
						},
						"visible": true,
						"metadata": {
							"opacity": 1
						},
						"children": [
							{
								"objectId": "349247D6-9BB6-4A43-A62F-D97EE0B28378",
								"kind": "group",
								"name": "plus_button",
								"originalName": "plus-button",
								"maskFrame": null,
								"layerFrame": {
									"x": 604,
									"y": 20,
									"width": 23,
									"height": 12
								},
								"visible": true,
								"metadata": {
									"opacity": 1
								},
								"image": {
									"path": "images/Layer-plus_button-mzq5mjq3.png",
									"frame": {
										"x": 604,
										"y": 20,
										"width": 23,
										"height": 12
									}
								},
								"children": []
							},
							{
								"objectId": "E83A16B5-072B-4D3B-AA43-F2C26A54CFD6",
								"kind": "group",
								"name": "projects",
								"originalName": "projects",
								"maskFrame": null,
								"layerFrame": {
									"x": 644,
									"y": 21,
									"width": 61,
									"height": 13
								},
								"visible": true,
								"metadata": {
									"opacity": 1
								},
								"image": {
									"path": "images/Layer-projects-rtgzqte2.png",
									"frame": {
										"x": 644,
										"y": 21,
										"width": 61,
										"height": 13
									}
								},
								"children": []
							},
							{
								"objectId": "B70A2611-2E82-4927-B058-B71F03B270FB",
								"kind": "group",
								"name": "activity",
								"originalName": "activity",
								"maskFrame": null,
								"layerFrame": {
									"x": 723,
									"y": 21,
									"width": 57,
									"height": 13
								},
								"visible": true,
								"metadata": {
									"opacity": 1
								},
								"image": {
									"path": "images/Layer-activity-qjcwqti2.png",
									"frame": {
										"x": 723,
										"y": 21,
										"width": 57,
										"height": 13
									}
								},
								"children": []
							},
							{
								"objectId": "714BA6EE-4107-4EA1-8636-19197AAADD56",
								"kind": "group",
								"name": "groups",
								"originalName": "groups",
								"maskFrame": null,
								"layerFrame": {
									"x": 797,
									"y": 20,
									"width": 57,
									"height": 14
								},
								"visible": true,
								"metadata": {
									"opacity": 1
								},
								"image": {
									"path": "images/Layer-groups-nze0qke2.png",
									"frame": {
										"x": 797,
										"y": 20,
										"width": 57,
										"height": 14
									}
								},
								"children": []
							},
							{
								"objectId": "4684AB5A-9F77-4303-8253-F13557ECB178",
								"kind": "group",
								"name": "more",
								"originalName": "more",
								"maskFrame": null,
								"layerFrame": {
									"x": 874,
									"y": 21,
									"width": 43,
									"height": 11
								},
								"visible": true,
								"metadata": {
									"opacity": 1
								},
								"image": {
									"path": "images/Layer-more-ndy4nefc.png",
									"frame": {
										"x": 874,
										"y": 21,
										"width": 43,
										"height": 11
									}
								},
								"children": []
							}
						]
					},
					{
						"objectId": "D7870D87-9CA6-430B-B009-CF05D6D46FB6",
						"kind": "group",
						"name": "dashboard_icons",
						"originalName": "dashboard-icons",
						"maskFrame": null,
						"layerFrame": {
							"x": 1338,
							"y": 13,
							"width": 163,
							"height": 25
						},
						"visible": true,
						"metadata": {
							"opacity": 1
						},
						"image": {
							"path": "images/Layer-dashboard_icons-rdc4nzbe.png",
							"frame": {
								"x": 1338,
								"y": 13,
								"width": 163,
								"height": 25
							}
						},
						"children": [
							{
								"objectId": "6BB102DD-EBF1-4659-A452-82AB26D99336",
								"kind": "group",
								"name": "icons",
								"originalName": "icons",
								"maskFrame": null,
								"layerFrame": {
									"x": 1338,
									"y": 17,
									"width": 113,
									"height": 18
								},
								"visible": true,
								"metadata": {
									"opacity": 1
								},
								"children": [
									{
										"objectId": "80A0B9CF-D540-4C49-9923-E6B0F3601880",
										"kind": "group",
										"name": "notifcations",
										"originalName": "notifcations",
										"maskFrame": null,
										"layerFrame": {
											"x": 1420,
											"y": 17,
											"width": 31,
											"height": 18
										},
										"visible": true,
										"metadata": {
											"opacity": 1
										},
										"image": {
											"path": "images/Layer-notifcations-odbbmei5.png",
											"frame": {
												"x": 1420,
												"y": 17,
												"width": 31,
												"height": 18
											}
										},
										"children": [
											{
												"objectId": "EBF803EC-3877-4249-9BF8-15DD5AFCA1E4",
												"kind": "group",
												"name": "count_badge",
												"originalName": "count-badge",
												"maskFrame": null,
												"layerFrame": {
													"x": 1429,
													"y": 21,
													"width": 22,
													"height": 14
												},
												"visible": true,
												"metadata": {
													"opacity": 1
												},
												"image": {
													"path": "images/Layer-count_badge-rujgodaz.png",
													"frame": {
														"x": 1429,
														"y": 21,
														"width": 22,
														"height": 14
													}
												},
												"children": []
											}
										]
									},
									{
										"objectId": "228C451B-16D2-4113-BD72-856892D1F17E",
										"kind": "group",
										"name": "mrs",
										"originalName": "mrs",
										"maskFrame": null,
										"layerFrame": {
											"x": 1379,
											"y": 18,
											"width": 28,
											"height": 17
										},
										"visible": true,
										"metadata": {
											"opacity": 1
										},
										"children": [
											{
												"objectId": "45B43657-0371-4E8D-A459-75D233022474",
												"kind": "group",
												"name": "count_badge1",
												"originalName": "count-badge",
												"maskFrame": null,
												"layerFrame": {
													"x": 1390,
													"y": 21,
													"width": 17,
													"height": 14
												},
												"visible": true,
												"metadata": {
													"opacity": 1
												},
												"image": {
													"path": "images/Layer-count_badge-ndvcndm2.png",
													"frame": {
														"x": 1390,
														"y": 21,
														"width": 17,
														"height": 14
													}
												},
												"children": []
											},
											{
												"objectId": "3EB06CA6-5A47-447E-A49E-BF1F7AD61B3C",
												"kind": "group",
												"name": "icon_merge_request_unmerged_bolder",
												"originalName": "icon-merge-request_unmerged-bolder",
												"maskFrame": null,
												"layerFrame": {
													"x": 1379,
													"y": 18,
													"width": 13,
													"height": 14
												},
												"visible": true,
												"metadata": {
													"opacity": 1
												},
												"children": [
													{
														"objectId": "5638E523-9623-43F1-87DB-FE743B52B40F",
														"kind": "group",
														"name": "Group",
														"originalName": "Group",
														"maskFrame": null,
														"layerFrame": {
															"x": 1379,
															"y": 18,
															"width": 13,
															"height": 14
														},
														"visible": true,
														"metadata": {
															"opacity": 1
														},
														"children": [
															{
																"objectId": "463EDFB3-494F-43E1-8796-655DC31CD973",
																"kind": "group",
																"name": "Group1",
																"originalName": "Group",
																"maskFrame": null,
																"layerFrame": {
																	"x": 1379,
																	"y": 22,
																	"width": 5,
																	"height": 11
																},
																"visible": true,
																"metadata": {
																	"opacity": 1
																},
																"children": []
															},
															{
																"objectId": "7FB2F022-2002-4CEC-B656-13F086FD395D",
																"kind": "group",
																"name": "Group2",
																"originalName": "Group",
																"maskFrame": null,
																"layerFrame": {
																	"x": 1379,
																	"y": 18,
																	"width": 13,
																	"height": 14
																},
																"visible": true,
																"metadata": {
																	"opacity": 1
																},
																"image": {
																	"path": "images/Layer-Group-n0zcmkyw.png",
																	"frame": {
																		"x": 1379,
																		"y": 18,
																		"width": 13,
																		"height": 14
																	}
																},
																"children": []
															}
														]
													}
												]
											}
										]
									},
									{
										"objectId": "1690D830-477D-44A0-82F6-EF966A0C7C6D",
										"kind": "group",
										"name": "issues",
										"originalName": "issues",
										"maskFrame": null,
										"layerFrame": {
											"x": 1338,
											"y": 18,
											"width": 27,
											"height": 17
										},
										"visible": true,
										"metadata": {
											"opacity": 1
										},
										"image": {
											"path": "images/Layer-issues-mty5meq4.png",
											"frame": {
												"x": 1338,
												"y": 18,
												"width": 27,
												"height": 17
											}
										},
										"children": [
											{
												"objectId": "E2AC3E1D-B294-4B6D-9FBE-73499D9B10A8",
												"kind": "group",
												"name": "count_badge2",
												"originalName": "count-badge",
												"maskFrame": null,
												"layerFrame": {
													"x": 1348,
													"y": 21,
													"width": 17,
													"height": 14
												},
												"visible": true,
												"metadata": {
													"opacity": 1
												},
												"image": {
													"path": "images/Layer-count_badge-rtjbqznf.png",
													"frame": {
														"x": 1348,
														"y": 21,
														"width": 17,
														"height": 14
													}
												},
												"children": []
											}
										]
									}
								]
							},
							{
								"objectId": "120BBB03-C4AF-4819-A934-121BC2C1A8AF",
								"kind": "group",
								"name": "user_picture",
								"originalName": "user-picture",
								"maskFrame": {
									"x": 0,
									"y": 0,
									"width": 23,
									"height": 23
								},
								"layerFrame": {
									"x": 1465,
									"y": 13,
									"width": 25,
									"height": 25
								},
								"visible": true,
								"metadata": {
									"opacity": 1
								},
								"image": {
									"path": "images/Layer-user_picture-mtiwqkjc.png",
									"frame": {
										"x": 1465,
										"y": 13,
										"width": 25,
										"height": 25
									}
								},
								"children": []
							}
						]
					},
					{
						"objectId": "F6A7C32C-FC3E-4207-8EC8-C37DBFAF711E",
						"kind": "group",
						"name": "search_bar",
						"originalName": "search-bar",
						"maskFrame": null,
						"layerFrame": {
							"x": 1143,
							"y": 9,
							"width": 180,
							"height": 35
						},
						"visible": true,
						"metadata": {
							"opacity": 1
						},
						"image": {
							"path": "images/Layer-search_bar-rjzbn0mz.png",
							"frame": {
								"x": 1143,
								"y": 9,
								"width": 180,
								"height": 35
							}
						},
						"children": []
					}
				]
			}
		]
	}
]