{
  "_class": "group",
  "do_objectID": "F9F33773-E261-4268-AB58-642EEE4C2A80",
  "exportOptions": {
    "_class": "exportOptions",
    "exportFormats": [
    ],
    "includedLayerIds": [
    ],
    "layerOptions": 0,
    "shouldTrim": false
  },
  "frame": {
    "_class": "rect",
    "constrainProportions": false,
    "height": 8,
    "width": 37,
    "x": 275,
    "y": 0
  },
  "hasClickThrough": false,
  "isFlippedHorizontal": true,
  "isFlippedVertical": false,
  "isLocked": false,
  "isVisible": true,
  "layerListExpandedType": 2,
  "layers": [
    {
      "class": "shapeGroup",
      "id": "09579C22-829E-4750-95EF-CF053B857526"
    },
    {
      "class": "shapeGroup",
      "id": "F1FF3E54-F86F-4FFC-8DE7-32E72A00D68D"
    },
    {
      "class": "shapeGroup",
      "id": "788D1CA7-8CB0-400D-B172-4B76F7A2A826"
    }
  ],
  "name": "Group 15",
  "nameIsFixed": false,
  "resizingConstraint": 63,
  "resizingType": 0,
  "rotation": 0,
  "shouldBreakMaskChain": false,
  "style": {
    "_class": "style",
    "endDecorationType": 0,
    "miterLimit": 10,
    "startDecorationType": 0
  }
}