{
  "_class": "group",
  "do_objectID": "FB99F83C-32BB-4A84-9F23-DCA7FA562760",
  "exportOptions": {
    "_class": "exportOptions",
    "exportFormats": [
    ],
    "includedLayerIds": [
    ],
    "layerOptions": 0,
    "shouldTrim": false
  },
  "frame": {
    "_class": "rect",
    "constrainProportions": false,
    "height": 28,
    "width": 647,
    "x": 607,
    "y": 862
  },
  "hasClickThrough": false,
  "isFlippedHorizontal": false,
  "isFlippedVertical": false,
  "isLocked": false,
  "isVisible": true,
  "layerListExpandedType": 2,
  "layers": [
    {
      "class": "shapeGroup",
      "id": "E29F80C3-4A28-4B63-B19E-EB48143D3E46"
    },
    {
      "class": "shapeGroup",
      "id": "87CA1C12-BFFD-44F9-AB8F-D96DC15C044F"
    },
    {
      "class": "shapeGroup",
      "id": "ADC90A20-4F7D-4B68-A671-BEF8135C293B"
    },
    {
      "class": "text",
      "id": "7BCEC1AA-BA0C-4166-9E3E-E736982AC0B4"
    }
  ],
  "name": "new_epic copy 12",
  "nameIsFixed": true,
  "resizingConstraint": 63,
  "resizingType": 0,
  "rotation": 0,
  "shouldBreakMaskChain": false,
  "style": {
    "_class": "style",
    "endDecorationType": 0,
    "miterLimit": 10,
    "startDecorationType": 0
  }
}